Band Value,Classes Temáticas
2,"3,864.639"
3,"54,777.749"
4,"194,843.208"
5,
6,
7,
8,
9,
10,
11,114.086
12,"3,356.722"
13,
14,"355,054.776"
15,"36,175.067"
16,
17,
18,
19,
20,
21,"2,910.733"
22,
23,
24,"11,844"
25,67
26,
27,
28,
29,539.996
30,
31,
32,
33,769.973
34,
35,
36,
37,
38,
39,
40,
41,"1,568.314"
