remapped,class
0,0
0,0
0,0
0,0
0,0
0,0
0,0
0,0
0,0
0,0
0,0
0,0
0,0
0,0
0,0
0,0
0,0
2,0
1,0
1,0
2,0
0,0
0,0
0,0
2,0
2,0
2,0
0,0
0,0
2,0
2,0
2,0
2,0
2,0
0,0
0,0
0,0
0,0
0,0
0,0
0,0
0,0
0,0
0,0
0,0
0,0
0,0
0,0
0,0
2,0
1,0
2,0
1,0
1,0
0,0
0,0
1,0
0,0
0,0
0,0
1,0
2,1
2,1
2,1
2,1
2,1
2,1
2,2
2,2
2,2
2,2
2,2
2,2
2,2
4,2
2,2
4,2
2,2
2,2
2,2
2,2
3,2
2,2
2,2
2,2
2,2
2,2
2,2
2,2
2,2
2,2
2,2
2,2
2,2
2,2
2,2
2,2
2,2
2,2
2,2
2,2
2,2
2,2
2,2
2,3
2,3
2,3
2,3
2,3
2,3
2,3
2,3
2,3
2,3
2,3
2,3
2,3
2,3
2,3
3,3
2,3
4,4
4,4
4,4
4,4
5,4
4,4
4,4
4,4
4,4
4,4
4,4
4,4
5,5
5,5
2,5
5,5
2,5
2,5
2,5
5,5
5,5
5,5
2,5
2,5
5,5
5,5
2,5
2,5
2,5
5,5
5,5
2,5
5,5
5,5
2,5
2,5
2,5
2,5
2,5
2,5
2,5
6,6
6,6
6,6
6,6
6,6
6,6
6,6
6,6
